{"name":"Consultar lista de recursos","id":"crud-regresin;consultar-lista-de-recursos","testSteps":[{"number":1,"description":"Given Que \"Fray\" es un usuario de las apis de regresin","duration":3,"startTime":"2023-03-05T04:57:14.527857900-05:00[America/Bogota]","result":"SUCCESS","precondition":false,"level":0},{"number":2,"description":"When consulte una lista de recursos","duration":268,"startTime":"2023-03-05T04:57:14.530858400-05:00[America/Bogota]","result":"SUCCESS","precondition":false,"level":0,"children":[{"number":3,"description":"Fray david benitez blanco get resource","duration":259,"startTime":"2023-03-05T04:57:14.536857500-05:00[America/Bogota]","result":"SUCCESS","precondition":false,"level":1,"children":[{"number":4,"description":"Fray David Benitez Blanco executes a GET on the resource /api/unknown","duration":250,"startTime":"2023-03-05T04:57:14.542857900-05:00[America/Bogota]","result":"SUCCESS","precondition":false,"level":2,"children":[{"number":5,"description":"GET https://reqres.in/api/unknown","duration":0,"startTime":"2023-03-05T04:57:14.793040700-05:00[America/Bogota]","result":"SUCCESS","restQuery":{"method":"GET","path":"https://reqres.in/api/unknown","content":"","contentType":"application/json","requestHeaders":"Accept\u003d*/*\r\n\t\t\t\tContent-Type\u003dapplication/json","requestCookies":"","responseHeaders":"Date: Sun, 05 Mar 2023 09:57:18 GMT\r\nContent-Type: application/json; charset\u003dutf-8\r\nTransfer-Encoding: chunked\r\nConnection: keep-alive\r\nX-Powered-By: Express\r\nAccess-Control-Allow-Origin: *\r\nEtag: W/\"2c1-N6Rqerxquq2kgQhL51EiSg4x0R8\"\r\nVia: 1.1 vegur\r\nCache-Control: max-age\u003d14400\r\nCF-Cache-Status: HIT\r\nAge: 1122\r\nReport-To: {\"endpoints\":[{\"url\":\"https:\\/\\/a.nel.cloudflare.com\\/report\\/v3?s\u003dX3nUVx6q5sAu%2F5G2iD3AbaiNbFzK0wU0mfgH1bKgCRvb79yV3oI5QfUBzOJ%2F4dzVZh1ojnGr5qnxEWA709bDeqxjpCuThxnMCH5FLShcT8EQ0b2vUEZ80gKoBQ%3D%3D\"}],\"group\":\"cf-nel\",\"max_age\":604800}\r\nNEL: {\"success_fraction\":0,\"report_to\":\"cf-nel\",\"max_age\":604800}\r\nVary: Accept-Encoding\r\nServer: cloudflare\r\nCF-RAY: 7a317e773f3767de-MIA\r\nContent-Encoding: gzip\r","responseCookies":"\r","responseBody":"{\n    \"page\": 1,\n    \"per_page\": 6,\n    \"total\": 12,\n    \"total_pages\": 2,\n    \"data\": [\n        {\n            \"id\": 1,\n            \"name\": \"cerulean\",\n            \"year\": 2000,\n            \"color\": \"#98B2D1\",\n            \"pantone_value\": \"15-4020\"\n        },\n        {\n            \"id\": 2,\n            \"name\": \"fuchsia rose\",\n            \"year\": 2001,\n            \"color\": \"#C74375\",\n            \"pantone_value\": \"17-2031\"\n        },\n        {\n            \"id\": 3,\n            \"name\": \"true red\",\n            \"year\": 2002,\n            \"color\": \"#BF1932\",\n            \"pantone_value\": \"19-1664\"\n        },\n        {\n            \"id\": 4,\n            \"name\": \"aqua sky\",\n            \"year\": 2003,\n            \"color\": \"#7BC4C4\",\n            \"pantone_value\": \"14-4811\"\n        },\n        {\n            \"id\": 5,\n            \"name\": \"tigerlily\",\n            \"year\": 2004,\n            \"color\": \"#E2583E\",\n            \"pantone_value\": \"17-1456\"\n        },\n        {\n            \"id\": 6,\n            \"name\": \"blue turquoise\",\n            \"year\": 2005,\n            \"color\": \"#53B0AE\",\n            \"pantone_value\": \"15-5217\"\n        }\n    ],\n    \"support\": {\n        \"url\": \"https://reqres.in/#support-heading\",\n        \"text\": \"To keep ReqRes free, contributions towards server costs are appreciated!\"\n    }\n}","statusCode":200},"precondition":false,"level":3}]}]}]},{"number":6,"description":"Then Validara los datos de la lista de recursos","duration":12,"startTime":"2023-03-05T04:57:14.799040500-05:00[America/Bogota]","result":"SUCCESS","precondition":false,"level":0,"children":[{"number":7,"description":"Validar statusCode","duration":2,"startTime":"2023-03-05T04:57:14.804040600-05:00[America/Bogota]","result":"SUCCESS","precondition":false,"level":1}]}],"userStory":{"id":"crud-regresin","storyName":"CRUD Regresin","displayName":"CRUD Regresin","path":"regresin.feature","narrative":"  se requiere realizar el proceso de CRUD para\n  usuarios realizando las validaciones de respuesta pertinentes.","type":"feature","qualifiedTag":{"name":"CRUD Regresin","type":"feature","displayName":"CRUD Regresin"}},"featureTag":{"name":"CRUD Regresin","type":"feature","displayName":"CRUD Regresin"},"title":"Consultar lista de recursos","description":"","tags":[{"name":"GetRequest","type":"tag","displayName":"GetRequest"},{"name":"CRUD Regresin","type":"feature","displayName":"CRUD Regresin"},{"name":"Regresin","type":"tag","displayName":"Regresin"}],"allTags":[{"name":"GetRequest","type":"tag","displayName":"GetRequest"},{"name":"CRUD Regresin","type":"feature","displayName":"CRUD Regresin"},{"name":"Regresin","type":"tag","displayName":"Regresin"}],"startTime":"2023-03-05T04:57:14.525857500-05:00[America/Bogota]","duration":285,"projectKey":"","isManualTestingUpToDate":false,"context":"windows","manual":false,"testSource":"Cucumber","actors":[{"name":"Fray David Benitez Blanco","can":["browse the web","call an API at https://reqres.in"]}],"result":"SUCCESS"}