{"name":"Consultar una pagina de usuarios","id":"crud-regresin;consultar-una-pagina-de-usuarios","testSteps":[{"number":1,"description":"Given Que \"Fray\" es un usuario de las apis de regresin","duration":2750,"startTime":"2023-03-05T18:17:43.872482300-05:00[America/Bogota]","screenshots":[{"screenshot":"2505afed870f214e644d9bfbfdeea1de509d2aaf05d70e95c1528c1eb42d95b3.png","timeStamp":1678058266621,"screenshotName":"2505afed870f214e644d9bfbfdeea1de509d2aaf05d70e95c1528c1eb42d95b3.png"}],"result":"SUCCESS","precondition":false,"level":0},{"number":2,"description":"When consulte una pagina de usuarios aleatoriamente","duration":4621,"startTime":"2023-03-05T18:17:46.627968900-05:00[America/Bogota]","screenshots":[{"screenshot":"2505afed870f214e644d9bfbfdeea1de509d2aaf05d70e95c1528c1eb42d95b3.png","htmlSource":"pagesource11317502325840221313.html","timeStamp":1678058266806,"screenshotName":"2505afed870f214e644d9bfbfdeea1de509d2aaf05d70e95c1528c1eb42d95b3.png"}],"result":"SUCCESS","precondition":false,"level":0,"children":[{"number":3,"description":"Fray david benitez blanco get page user","duration":3594,"startTime":"2023-03-05T18:17:47.637881400-05:00[America/Bogota]","screenshots":[{"screenshot":"2505afed870f214e644d9bfbfdeea1de509d2aaf05d70e95c1528c1eb42d95b3.png","htmlSource":"pagesource6628398886466695200.html","timeStamp":1678058267912,"screenshotName":"2505afed870f214e644d9bfbfdeea1de509d2aaf05d70e95c1528c1eb42d95b3.png"}],"result":"SUCCESS","precondition":false,"level":1,"children":[{"number":4,"description":"Fray David Benitez Blanco executes a GET on the resource /api/users","duration":3003,"startTime":"2023-03-05T18:17:48.065880800-05:00[America/Bogota]","result":"SUCCESS","precondition":false,"level":2,"children":[{"number":5,"description":"GET https://reqres.in/api/users?page\u003d1","duration":4,"startTime":"2023-03-05T18:17:51.064875400-05:00[America/Bogota]","result":"SUCCESS","restQuery":{"method":"GET","path":"https://reqres.in/api/users?page\u003d1","content":"","contentType":"application/json","requestHeaders":"Accept\u003d*/*\r\n\t\t\t\tContent-Type\u003dapplication/json","requestCookies":"","responseHeaders":"Date: Sun, 05 Mar 2023 23:17:55 GMT\r\nContent-Type: application/json; charset\u003dutf-8\r\nTransfer-Encoding: chunked\r\nConnection: keep-alive\r\nX-Powered-By: Express\r\nAccess-Control-Allow-Origin: *\r\nEtag: W/\"3e4-2RLXvr5wTg9YQ6aH95CkYoFNuO8\"\r\nVia: 1.1 vegur\r\nCache-Control: max-age\u003d14400\r\nCF-Cache-Status: REVALIDATED\r\nReport-To: {\"endpoints\":[{\"url\":\"https:\\/\\/a.nel.cloudflare.com\\/report\\/v3?s\u003diV9qFdjP5R8xLlUI21qU%2BIa29m0GlsNHAZ%2F6U3BTq0TWjE3BeITpR9E0gBPGdF35qLIDEYr%2BjWkrRtv9Ah54NkOMkqDuPtjYksbAeNLq96sQL0t0tOl6Z2uNzQ%3D%3D\"}],\"group\":\"cf-nel\",\"max_age\":604800}\r\nNEL: {\"success_fraction\":0,\"report_to\":\"cf-nel\",\"max_age\":604800}\r\nVary: Accept-Encoding\r\nServer: cloudflare\r\nCF-RAY: 7a36133addf28db5-MIA\r\nContent-Encoding: gzip\r","responseCookies":"\r","responseBody":"{\n    \"page\": 1,\n    \"per_page\": 6,\n    \"total\": 12,\n    \"total_pages\": 2,\n    \"data\": [\n        {\n            \"id\": 1,\n            \"email\": \"george.bluth@reqres.in\",\n            \"first_name\": \"George\",\n            \"last_name\": \"Bluth\",\n            \"avatar\": \"https://reqres.in/img/faces/1-image.jpg\"\n        },\n        {\n            \"id\": 2,\n            \"email\": \"janet.weaver@reqres.in\",\n            \"first_name\": \"Janet\",\n            \"last_name\": \"Weaver\",\n            \"avatar\": \"https://reqres.in/img/faces/2-image.jpg\"\n        },\n        {\n            \"id\": 3,\n            \"email\": \"emma.wong@reqres.in\",\n            \"first_name\": \"Emma\",\n            \"last_name\": \"Wong\",\n            \"avatar\": \"https://reqres.in/img/faces/3-image.jpg\"\n        },\n        {\n            \"id\": 4,\n            \"email\": \"eve.holt@reqres.in\",\n            \"first_name\": \"Eve\",\n            \"last_name\": \"Holt\",\n            \"avatar\": \"https://reqres.in/img/faces/4-image.jpg\"\n        },\n        {\n            \"id\": 5,\n            \"email\": \"charles.morris@reqres.in\",\n            \"first_name\": \"Charles\",\n            \"last_name\": \"Morris\",\n            \"avatar\": \"https://reqres.in/img/faces/5-image.jpg\"\n        },\n        {\n            \"id\": 6,\n            \"email\": \"tracey.ramos@reqres.in\",\n            \"first_name\": \"Tracey\",\n            \"last_name\": \"Ramos\",\n            \"avatar\": \"https://reqres.in/img/faces/6-image.jpg\"\n        }\n    ],\n    \"support\": {\n        \"url\": \"https://reqres.in/#support-heading\",\n        \"text\": \"To keep ReqRes free, contributions towards server costs are appreciated!\"\n    }\n}","statusCode":200},"precondition":false,"level":3}]}]}]},{"number":6,"description":"Then Validara el estado de la peticion","duration":1060,"startTime":"2023-03-05T18:17:51.251874300-05:00[America/Bogota]","screenshots":[{"screenshot":"2505afed870f214e644d9bfbfdeea1de509d2aaf05d70e95c1528c1eb42d95b3.png","htmlSource":"pagesource6940228660649352385.html","timeStamp":1678058271273,"screenshotName":"2505afed870f214e644d9bfbfdeea1de509d2aaf05d70e95c1528c1eb42d95b3.png"}],"result":"SUCCESS","precondition":false,"level":0,"children":[{"number":7,"description":"Validar statusCode","duration":196,"startTime":"2023-03-05T18:17:51.360877300-05:00[America/Bogota]","screenshots":[{"screenshot":"2505afed870f214e644d9bfbfdeea1de509d2aaf05d70e95c1528c1eb42d95b3.png","htmlSource":"pagesource16221559550896064635.html","timeStamp":1678058271525,"screenshotName":"2505afed870f214e644d9bfbfdeea1de509d2aaf05d70e95c1528c1eb42d95b3.png"}],"result":"SUCCESS","precondition":false,"level":1},{"number":8,"description":"Validar page","duration":732,"startTime":"2023-03-05T18:17:51.564875500-05:00[America/Bogota]","screenshots":[{"screenshot":"2505afed870f214e644d9bfbfdeea1de509d2aaf05d70e95c1528c1eb42d95b3.png","htmlSource":"pagesource16421007315199512387.html","timeStamp":1678058271731,"screenshotName":"2505afed870f214e644d9bfbfdeea1de509d2aaf05d70e95c1528c1eb42d95b3.png"}],"result":"SUCCESS","precondition":false,"level":1}]}],"userStory":{"id":"crud-regresin","storyName":"CRUD Regresin","displayName":"CRUD Regresin","path":"regresin.feature","narrative":"  se requiere realizar el proceso de CRUD para\n  usuarios realizando las validaciones de respuesta pertinentes.","type":"feature","qualifiedTag":{"name":"CRUD Regresin","type":"feature","displayName":"CRUD Regresin"}},"featureTag":{"name":"CRUD Regresin","type":"feature","displayName":"CRUD Regresin"},"title":"Consultar una pagina de usuarios","description":"","tags":[{"name":"GetRequest","type":"tag","displayName":"GetRequest"},{"name":"CRUD Regresin","type":"feature","displayName":"CRUD Regresin"},{"name":"Regresin","type":"tag","displayName":"Regresin"}],"allTags":[{"name":"GetRequest","type":"tag","displayName":"GetRequest"},{"name":"CRUD Regresin","type":"feature","displayName":"CRUD Regresin"},{"name":"Regresin","type":"tag","displayName":"Regresin"}],"startTime":"2023-03-05T18:17:43.734478800-05:00[America/Bogota]","duration":8579,"projectKey":"","sessionId":"4ff63ce089d0b8c68e58fc7b8f79d949","driver":"chrome:fray david benitez blanco","isManualTestingUpToDate":false,"context":"chrome,windows","manual":false,"testSource":"Cucumber","actors":[{"name":"Fray David Benitez Blanco","can":["browse the web","call an API at https://reqres.in"]}],"result":"SUCCESS"}