{"name":"Consultar lista de recursos","id":"crud-regresin;consultar-lista-de-recursos","testSteps":[{"number":1,"description":"Given Que \"Fray\" es un usuario de las apis de regresin","duration":1126,"startTime":"2023-03-05T18:17:56.938868100-05:00[America/Bogota]","screenshots":[{"screenshot":"2505afed870f214e644d9bfbfdeea1de509d2aaf05d70e95c1528c1eb42d95b3.png","timeStamp":1678058278065,"screenshotName":"2505afed870f214e644d9bfbfdeea1de509d2aaf05d70e95c1528c1eb42d95b3.png"}],"result":"SUCCESS","precondition":false,"level":0},{"number":2,"description":"When consulte una lista de recursos","duration":508,"startTime":"2023-03-05T18:17:58.066192700-05:00[America/Bogota]","screenshots":[{"screenshot":"2505afed870f214e644d9bfbfdeea1de509d2aaf05d70e95c1528c1eb42d95b3.png","htmlSource":"pagesource6984333577162025219.html","timeStamp":1678058278082,"screenshotName":"2505afed870f214e644d9bfbfdeea1de509d2aaf05d70e95c1528c1eb42d95b3.png"}],"result":"SUCCESS","precondition":false,"level":0,"children":[{"number":3,"description":"Fray david benitez blanco get resource","duration":474,"startTime":"2023-03-05T18:17:58.089189500-05:00[America/Bogota]","screenshots":[{"screenshot":"2505afed870f214e644d9bfbfdeea1de509d2aaf05d70e95c1528c1eb42d95b3.png","htmlSource":"pagesource17454872443559185526.html","timeStamp":1678058278105,"screenshotName":"2505afed870f214e644d9bfbfdeea1de509d2aaf05d70e95c1528c1eb42d95b3.png"}],"result":"SUCCESS","precondition":false,"level":1,"children":[{"number":4,"description":"Fray David Benitez Blanco executes a GET on the resource /api/unknown","duration":271,"startTime":"2023-03-05T18:17:58.112192800-05:00[America/Bogota]","result":"SUCCESS","precondition":false,"level":2,"children":[{"number":5,"description":"GET https://reqres.in/api/unknown","duration":2,"startTime":"2023-03-05T18:17:58.380978800-05:00[America/Bogota]","result":"SUCCESS","restQuery":{"method":"GET","path":"https://reqres.in/api/unknown","content":"","contentType":"application/json","requestHeaders":"Accept\u003d*/*\r\n\t\t\t\tContent-Type\u003dapplication/json","requestCookies":"","responseHeaders":"Date: Sun, 05 Mar 2023 23:18:02 GMT\r\nContent-Type: application/json; charset\u003dutf-8\r\nTransfer-Encoding: chunked\r\nConnection: keep-alive\r\nX-Powered-By: Express\r\nAccess-Control-Allow-Origin: *\r\nEtag: W/\"2c1-N6Rqerxquq2kgQhL51EiSg4x0R8\"\r\nVia: 1.1 vegur\r\nCache-Control: max-age\u003d14400\r\nCF-Cache-Status: HIT\r\nAge: 6986\r\nReport-To: {\"endpoints\":[{\"url\":\"https:\\/\\/a.nel.cloudflare.com\\/report\\/v3?s\u003dn8U90B5SRqJssjNF%2Bbbdw6VQQiIf1wyWt9Lq6uHPExNnTnvIMjWOcYJxPrkHnmYIhdbz%2FYYk1uwWhd7T2zs9fogQwvI4eBnSOXozu5%2F%2FTrsPWl0euWjSoHsAcw%3D%3D\"}],\"group\":\"cf-nel\",\"max_age\":604800}\r\nNEL: {\"success_fraction\":0,\"report_to\":\"cf-nel\",\"max_age\":604800}\r\nVary: Accept-Encoding\r\nServer: cloudflare\r\nCF-RAY: 7a36136a6daa31f6-MIA\r\nContent-Encoding: gzip\r","responseCookies":"\r","responseBody":"{\n    \"page\": 1,\n    \"per_page\": 6,\n    \"total\": 12,\n    \"total_pages\": 2,\n    \"data\": [\n        {\n            \"id\": 1,\n            \"name\": \"cerulean\",\n            \"year\": 2000,\n            \"color\": \"#98B2D1\",\n            \"pantone_value\": \"15-4020\"\n        },\n        {\n            \"id\": 2,\n            \"name\": \"fuchsia rose\",\n            \"year\": 2001,\n            \"color\": \"#C74375\",\n            \"pantone_value\": \"17-2031\"\n        },\n        {\n            \"id\": 3,\n            \"name\": \"true red\",\n            \"year\": 2002,\n            \"color\": \"#BF1932\",\n            \"pantone_value\": \"19-1664\"\n        },\n        {\n            \"id\": 4,\n            \"name\": \"aqua sky\",\n            \"year\": 2003,\n            \"color\": \"#7BC4C4\",\n            \"pantone_value\": \"14-4811\"\n        },\n        {\n            \"id\": 5,\n            \"name\": \"tigerlily\",\n            \"year\": 2004,\n            \"color\": \"#E2583E\",\n            \"pantone_value\": \"17-1456\"\n        },\n        {\n            \"id\": 6,\n            \"name\": \"blue turquoise\",\n            \"year\": 2005,\n            \"color\": \"#53B0AE\",\n            \"pantone_value\": \"15-5217\"\n        }\n    ],\n    \"support\": {\n        \"url\": \"https://reqres.in/#support-heading\",\n        \"text\": \"To keep ReqRes free, contributions towards server costs are appreciated!\"\n    }\n}","statusCode":200},"precondition":false,"level":3}]}]}]},{"number":6,"description":"Then Validara los datos de la lista de recursos","duration":217,"startTime":"2023-03-05T18:17:58.575549900-05:00[America/Bogota]","screenshots":[{"screenshot":"2505afed870f214e644d9bfbfdeea1de509d2aaf05d70e95c1528c1eb42d95b3.png","htmlSource":"pagesource5146268472144441513.html","timeStamp":1678058278595,"screenshotName":"2505afed870f214e644d9bfbfdeea1de509d2aaf05d70e95c1528c1eb42d95b3.png"}],"result":"SUCCESS","precondition":false,"level":0,"children":[{"number":7,"description":"Validar statusCode","duration":176,"startTime":"2023-03-05T18:17:58.606549200-05:00[America/Bogota]","screenshots":[{"screenshot":"2505afed870f214e644d9bfbfdeea1de509d2aaf05d70e95c1528c1eb42d95b3.png","htmlSource":"pagesource143035676267160742.html","timeStamp":1678058278627,"screenshotName":"2505afed870f214e644d9bfbfdeea1de509d2aaf05d70e95c1528c1eb42d95b3.png"}],"result":"SUCCESS","precondition":false,"level":1}]}],"userStory":{"id":"crud-regresin","storyName":"CRUD Regresin","displayName":"CRUD Regresin","path":"regresin.feature","narrative":"  se requiere realizar el proceso de CRUD para\n  usuarios realizando las validaciones de respuesta pertinentes.","type":"feature","qualifiedTag":{"name":"CRUD Regresin","type":"feature","displayName":"CRUD Regresin"}},"featureTag":{"name":"CRUD Regresin","type":"feature","displayName":"CRUD Regresin"},"title":"Consultar lista de recursos","description":"","tags":[{"name":"GetRequest","type":"tag","displayName":"GetRequest"},{"name":"CRUD Regresin","type":"feature","displayName":"CRUD Regresin"},{"name":"Regresin","type":"tag","displayName":"Regresin"}],"allTags":[{"name":"GetRequest","type":"tag","displayName":"GetRequest"},{"name":"CRUD Regresin","type":"feature","displayName":"CRUD Regresin"},{"name":"Regresin","type":"tag","displayName":"Regresin"}],"startTime":"2023-03-05T18:17:56.936865800-05:00[America/Bogota]","duration":1857,"projectKey":"","sessionId":"e4bf033f7bcca9224044bcc58c4fda53","driver":"chrome:fray david benitez blanco","isManualTestingUpToDate":false,"context":"chrome,windows","manual":false,"testSource":"Cucumber","actors":[{"name":"Fray David Benitez Blanco","can":["browse the web","call an API at https://reqres.in"]}],"result":"SUCCESS"}