{"name":"Consultar una pagina de usuarios","id":"crud-regresin;consultar-una-pagina-de-usuarios","testSteps":[{"number":1,"description":"Given Que \"Fray\" es un usuario de las apis de regresin","duration":164,"startTime":"2023-03-05T02:36:00.641402-05:00[America/Bogota]","result":"SUCCESS","precondition":false,"level":0},{"number":2,"description":"When consulte una pagina de usuarios aleatoriamente","duration":2349,"startTime":"2023-03-05T02:36:00.809401-05:00[America/Bogota]","result":"SUCCESS","precondition":false,"level":0,"children":[{"number":3,"description":"Fray david benitez blanco get request service","duration":2149,"startTime":"2023-03-05T02:36:01.005400600-05:00[America/Bogota]","result":"SUCCESS","precondition":false,"level":1,"children":[{"number":4,"description":"Fray David Benitez Blanco executes a GET on the resource /api/users","duration":2083,"startTime":"2023-03-05T02:36:01.064400400-05:00[America/Bogota]","result":"SUCCESS","precondition":false,"level":2,"children":[{"number":5,"description":"GET https://reqres.in/api/users?page\u003d1","duration":0,"startTime":"2023-03-05T02:36:03.146403500-05:00[America/Bogota]","result":"SUCCESS","restQuery":{"method":"GET","path":"https://reqres.in/api/users?page\u003d1","content":"","contentType":"application/json","requestHeaders":"Accept\u003d*/*\r\n\t\t\t\tContent-Type\u003dapplication/json","requestCookies":"","responseHeaders":"Date: Sun, 05 Mar 2023 07:36:06 GMT\r\nContent-Type: application/json; charset\u003dutf-8\r\nTransfer-Encoding: chunked\r\nConnection: keep-alive\r\nX-Powered-By: Express\r\nAccess-Control-Allow-Origin: *\r\nEtag: W/\"3e4-2RLXvr5wTg9YQ6aH95CkYoFNuO8\"\r\nVia: 1.1 vegur\r\nCache-Control: max-age\u003d14400\r\nCF-Cache-Status: HIT\r\nAge: 936\r\nReport-To: {\"endpoints\":[{\"url\":\"https:\\/\\/a.nel.cloudflare.com\\/report\\/v3?s\u003dHAJRQcJpX2%2BXHAfRwCIVSpt33tZT9nXq6qo5EJbJpDG9g4UcbXuQFwBqIACQH4WE5nw5uQVD7cX58m3Kv75XsUFxogxGJ9PpKBUKy5CcSs9YfD3wtSwa9lvLsQ%3D%3D\"}],\"group\":\"cf-nel\",\"max_age\":604800}\r\nNEL: {\"success_fraction\":0,\"report_to\":\"cf-nel\",\"max_age\":604800}\r\nVary: Accept-Encoding\r\nServer: cloudflare\r\nCF-RAY: 7a30afa30aa98d9c-MIA\r\nContent-Encoding: gzip\r","responseCookies":"\r","responseBody":"{\n    \"page\": 1,\n    \"per_page\": 6,\n    \"total\": 12,\n    \"total_pages\": 2,\n    \"data\": [\n        {\n            \"id\": 1,\n            \"email\": \"george.bluth@reqres.in\",\n            \"first_name\": \"George\",\n            \"last_name\": \"Bluth\",\n            \"avatar\": \"https://reqres.in/img/faces/1-image.jpg\"\n        },\n        {\n            \"id\": 2,\n            \"email\": \"janet.weaver@reqres.in\",\n            \"first_name\": \"Janet\",\n            \"last_name\": \"Weaver\",\n            \"avatar\": \"https://reqres.in/img/faces/2-image.jpg\"\n        },\n        {\n            \"id\": 3,\n            \"email\": \"emma.wong@reqres.in\",\n            \"first_name\": \"Emma\",\n            \"last_name\": \"Wong\",\n            \"avatar\": \"https://reqres.in/img/faces/3-image.jpg\"\n        },\n        {\n            \"id\": 4,\n            \"email\": \"eve.holt@reqres.in\",\n            \"first_name\": \"Eve\",\n            \"last_name\": \"Holt\",\n            \"avatar\": \"https://reqres.in/img/faces/4-image.jpg\"\n        },\n        {\n            \"id\": 5,\n            \"email\": \"charles.morris@reqres.in\",\n            \"first_name\": \"Charles\",\n            \"last_name\": \"Morris\",\n            \"avatar\": \"https://reqres.in/img/faces/5-image.jpg\"\n        },\n        {\n            \"id\": 6,\n            \"email\": \"tracey.ramos@reqres.in\",\n            \"first_name\": \"Tracey\",\n            \"last_name\": \"Ramos\",\n            \"avatar\": \"https://reqres.in/img/faces/6-image.jpg\"\n        }\n    ],\n    \"support\": {\n        \"url\": \"https://reqres.in/#support-heading\",\n        \"text\": \"To keep ReqRes free, contributions towards server costs are appreciated!\"\n    }\n}","statusCode":200},"precondition":false,"level":3}]}]}]},{"number":6,"description":"Then Validara el estado de la peticion","duration":509,"startTime":"2023-03-05T02:36:03.159402800-05:00[America/Bogota]","result":"SUCCESS","precondition":false,"level":0,"children":[{"number":7,"description":"Validar statusCode","duration":15,"startTime":"2023-03-05T02:36:03.211403100-05:00[America/Bogota]","result":"SUCCESS","precondition":false,"level":1},{"number":8,"description":"Validar page","duration":430,"startTime":"2023-03-05T02:36:03.231402500-05:00[America/Bogota]","result":"SUCCESS","precondition":false,"level":1}]}],"userStory":{"id":"crud-regresin","storyName":"CRUD Regresin","displayName":"CRUD Regresin","path":"regresin.feature","narrative":"  se requiere realizar el proceso de CRUD para\n  usuarios realizando las validaciones de respuesta pertinentes.","type":"feature","qualifiedTag":{"name":"CRUD Regresin","type":"feature","displayName":"CRUD Regresin"}},"featureTag":{"name":"CRUD Regresin","type":"feature","displayName":"CRUD Regresin"},"title":"Consultar una pagina de usuarios","description":"","tags":[{"name":"GetRequest","type":"tag","displayName":"GetRequest"},{"name":"CRUD Regresin","type":"feature","displayName":"CRUD Regresin"},{"name":"Regresin","type":"tag","displayName":"Regresin"}],"allTags":[{"name":"GetRequest","type":"tag","displayName":"GetRequest"},{"name":"CRUD Regresin","type":"feature","displayName":"CRUD Regresin"},{"name":"Regresin","type":"tag","displayName":"Regresin"}],"startTime":"2023-03-05T02:36:00.536400600-05:00[America/Bogota]","duration":3133,"projectKey":"","isManualTestingUpToDate":false,"context":"windows","manual":false,"testSource":"Cucumber","actors":[{"name":"Fray David Benitez Blanco","can":["browse the web","call an API at https://reqres.in"]}],"result":"SUCCESS"}